exteriorfront,Front Exterior
porch,Porch
mainlevel,Main Level
foyer,Foyer
hallway,Hallway
livingroom,Living Room
familyroom,Family Room 
diningroom,Dining Room 
kitchen,Kitchen
sunroom,Sunroom
den,Den
powderroom,Powder Room
2ndlevel,Second Level
upperlevelhallway,Upper Hallway 
masterbedroom,Master Bedroom 
masterensuite,Master Ensuite
2ndbedroom,Second Bedroom
2ndensuite,Second Ensuite 
3rdbedroom,Third Bedroom
3rdensuite,Thrid Ensuite 
4thbedroom,Fourth Bedroom
4thensuite,Fourth Ensuite
5thbedroom,Fifth Bedroom
5thensuite,Fifth Ensuite
6thbedroom,Sixth Bedroom
6thensuite,Sixth Ensuite
7thbedroom,Seventh Bedroom 
7thensuite,Seventh Ensuite 
bathroom,Bathroom
3rdlevel,Third Level
4thlevel,Fourth Level
3rdlevelhallway,Third Level Hallway
attic,Attic
lowerlevel,Lower Level
laundryroom,Laundry Room
view,View
lobby,Lobby
amenities,Amenities
backyard,Backyard
area,Area
parking,Parking
garage,Garage
balcony,Balcony
